{
  "Newcomer Source": [
	{
      "Code": "A",
      "Description": "新人",
      "SourceSystem": "IL"
    },
	{
      "Code": "B",
      "Description": "归雁",
      "SourceSystem": "IL"
    },
	{
      "Code": "C",
      "Description": "转司",
      "SourceSystem": "IL"
    },
    {
      "Code": "D",
      "Description": "转司之归雁",
      "SourceSystem": "IL"
    }
  ]
}